[{"AF":"Афганистан"},
{"AX":"Каймановы острова"},
{"AL":"Албания"},
{"DZ":"Алжир"},
{"AS":"Американское Самоа"},
{"AD":"Андорра"},
{"AO":"Ангола"},
{"AI":"Ангилья"},
{"AQ":"Антарктида"},
{"AG":"Антигуа и Барбуда"},
{"AR":"Аргентина"},
{"AM":"Армения"},
{"AW":"Аруба"},
{"AC":"Остров Вознесения"},
{"AU":"Австралия"},
{"AT":"Австрия"},
{"AZ":"Азербайджан"},
{"BS":"Багамские острова"},
{"BH":"Бахрейн"},
{"BD":"Бангладеш"},
{"BB":"Барбадос"},
{"BY":"Белоруссия"},
{"BE":"Бельгия"},
{"BZ":"Белиз"},
{"BJ":"Бенин"},
{"BM":"Бермудские острова"},
{"BT":"Бутан"},
{"BO":"Боливия"},
{"BA":"Босния и Герцеговина"},
{"BW":"Ботсвана"},
{"BV":"Остров Буве"},
{"BR":"Бразилия"},
{"BQ":"Бонэйр, Синт-Эстатиус и Саба"},
{"IO":"Британская территория в Индийском океане"},
{"VG":"Британские Виргинские острова"},
{"BN":"Бруней"},
{"BG":"Болгария"},
{"BF":"Буркина-Фасо"},
{"BI":"Бурунди"},
{"KH":"Камбоджа"},
{"CM":"Камерун"},
{"CA":"Канада"},
{"IC":"Канарские острова"},
{"CT":"Острова Кантон и Эндербери"},
{"CV":"Кабо-Верде"},
{"KY":"Каймановы острова"},
{"CF":"Центральноафриканская Республика"},
{"EA":"Сеута и Мелилья"},
{"TD":"Чад"},
{"CL":"Чили"},
{"CN":"Китай"},
{"CX":"Остров Рождества"},
{"CP":"Остров Клиппертон"},
{"CC":"Кокосовые острова [Килинг]"},
{"CO":"Колумбия"},
{"KM":"Коморские острова"},
{"CD":"Конго [ДРК]"},
{"CK":"Острова Кука"},
{"CR":"Коста-Рика"},
{"CI":"Кот-д“Ивуар"},
{"HR":"Хорватия"},
{"CU":"Куба"},
{"CW":"Кюрасао"},
{"CY":"Кипр"},
{"CZ":"Чехия"},
{"DK":"Дания"},
{"DG":"Диего-Гарсия"},
{"DJ":"Джибути"},
{"DM":"Доминика"},
{"DO":"Доминиканская Республика"},
{"NQ":"Земля Королевы Мод"},
{"EC":"Эквадор"},
{"EG":"Египет"},
{"SV":"Сальвадор"},
{"GQ":"Экваториальная Гвинея"},
{"ER":"Эритрея"},
{"EE":"Эстония"},
{"ET":"Эфиопия"},
{"EU":"Европейский Союз"},
{"FK":"Фолклендские [Мальвинские] острова"},
{"FO":"Фарерские острова"},
{"FJ":"Фиджи"},
{"FI":"Финляндия"},
{"FR":"Франция"},
{"GF":"Французская Гвиана"},
{"PF":"Французская Полинезия"},
{"TF":"Французские Южные Территории"},
{"FQ":"Французские Южные и Антарктические территории"},
{"GA":"Габон"},
{"GM":"Гамбия"},
{"GE":"Грузия"},
{"DE":"Германия"},
{"GH":"Гана"},
{"GI":"Гибралтар"},
{"GR":"Греция"},
{"GL":"Гренландия"},
{"GD":"Гренада"},
{"GP":"Гваделупа"},
{"GU":"Гуам"},
{"GT":"Гватемала"},
{"GG":"Гернси"},
{"GN":"Гвинея"},
{"GW":"Гвинея-Бисау"},
{"GY":"Гаяна"},
{"HT":"Гаити"},
{"HM":"Остров Херд и острова Макдональд"},
{"HN":"Гондурас"},
{"HK":"САР Гонконг"},
{"HU":"Венгрия"},
{"IS":"Исландия"},
{"IN":"Индия"},
{"ID":"Индонезия"},
{"IR":"Исламская Республика Иран"},
{"IE":"Ирландия"},
{"IM":"Остров Мэн"},
{"IL":"Израиль"},
{"IQ":"Ирак"},
{"IT":"Италия"},
{"JM":"Ямайка"},
{"JP":"Япония"},
{"JE":"Джерси"},
{"JT":"Остров Джонстон"},
{"JO":"Иордания"},
{"KZ":"Казахстан"},
{"KE":"Кения"},
{"KI":"Кирибати"},
{"KP":"КНДР"},
{"KR":"Южная Корея"},
{"XK":"Косово"},
{"KW":"Кувейт"},
{"KG":"Киргизия"},
{"LA":"Лаос"},
{"LV":"Латвия"},
{"LB":"Ливан"},
{"LS":"Лесото"},
{"LR":"Либерия"},
{"LY":"Ливия"},
{"LI":"Лихтенштейн"},
{"LT":"Литва"},
{"LU":"Люксембург"},
{"MO":"САР Макао"},
{"MK":"Македония [бывшая югославская республика Македония]"},
{"MG":"Мадагаскар"},
{"MW":"Малави"},
{"MY":"Малайзия"},
{"MV":"Мальдивы"},
{"ML":"Мали"},
{"MT":"Мальта"},
{"MH":"Маршалловы острова"},
{"MQ":"Мартиника"},
{"MR":"Мавритания"},
{"MU":"Маврикий"},
{"YT":"Майотта"},
{"FX":"Метрополия Франции"},
{"MX":"Мексика"},
{"FM":"Микронезия"},
{"MI":"Острова Мидуэй"},
{"MD":"Молдавия"},
{"MC":"Монако"},
{"MN":"Монголия"},
{"ME":"Черногория"},
{"MS":"Монтсеррат"},
{"MA":"Марокко"},
{"MZ":"Мозамбик"},
{"MM":"Мьянма"},
{"NA":"Намибия"},
{"NR":"Науру"},
{"NP":"Непал"},
{"NL":"Нидерланды"},
{"AN":"Нидерландские Антильские острова"},
{"NT":"Нейтральная зона"},
{"NC":"Новая Каледония"},
{"NZ":"Новая Зеландия"},
{"NI":"Никарагуа"},
{"NE":"Нигер"},
{"NG":"Нигерия"},
{"NU":"Ниуэ"},
{"NF":"Остров Норфолк"},
{"VD":"Северный Вьетнам"},
{"MP":"Северные Марианские острова"},
{"NO":"Норвегия"},
{"OM":"Оман"},
{"OM_mobile":"Оман Мобайл"},
{"QO":"Отдаленная Океания"},
{"PC":"Подопечная территория Тихоокеанские острова"},
{"PK":"Пакистан"},
{"PW":"Палау"},
{"PS":"Палестинские территории"},
{"PA":"Панама"},
{"PZ":"Зона Панамского канала"},
{"PY":"Парагвай"},
{"YD":"Народно-Демократическая Республика Йемен"},
{"PE":"Перу"},
{"PH":"Филиппины"},
{"PN":"Острова Питкэрн"},
{"PL":"Польша"},
{"PT":"Португалия"},
{"PR":"Пуэрто-Рико"},
{"QA":"Катар"},
{"RE":"Реюньон"},
{"RO":"Румыния"},
{"RU":"Россия"},
{"RW":"Руанда"},
{"BL":"Сен-Бартелеми"},
{"SH":"Остров Святой Елены"},
{"KN":"Сент-Китс и Невис"},
{"LC":"Сент-Люсия"},
{"MF":"Сен-Мартен"},
{"PM":"Сен-Пьер и Микелон"},
{"VC":"Сент-Винсент и Гренадины"},
{"WS":"Самоа"},
{"SM":"Сан-Марино"},
{"ST":"Сан-Томе и Принсипи"},
{"SA":"Саудовская Аравия"},
{"SN":"Сенегал"},
{"RS":"Сербия"},
{"CS":"Сербия и Черногория"},
{"SC":"Сейшельские острова"},
{"SL":"Сьерра-Леоне"},
{"SG":"Сингапур"},
{"SX":"Синт-Мартен"},
{"SK":"Словакия"},
{"SI":"Словения"},
{"SB":"Соломоновы острова"},
{"SO":"Сомали"},
{"ZA":"ЮАР"},
{"GS":"Южная Георгия и Южные Сандвичевы Острова"},
{"ES":"Испания"},
{"LK":"Шри-Ланка"},
{"SR":"Суринам"},
{"SJ":"Шпицберген и Ян-Майен"},
{"SZ":"Свазиленд"},
{"SE":"Швеция"},
{"CH":"Швейцария"},
{"SY":"Сирийская Арабская Республика"},
{"TW":"Тайвань"},
{"TW_mobile":"Тайвань Мобайл"},
{"TJ":"Таджикистан"},
{"TZ":"Танзания"},
{"TH":"Таиланд"},
{"TL":"Восточный Тимор"},
{"TG":"Того"},
{"TK":"Токелау"},
{"TO":"Тонга"},
{"TT":"Тринидад и Тобаго"},
{"TA":"Тристан-да-Кунья"},
{"TN":"Тунис"},
{"TR":"Турция"},
{"TM":"Туркменистан"},
{"TC":"Острова Теркс и Кайкос"},
{"TV":"Тувалу"},
{"UM":"Внешние малые острова США"},
{"PU":"Разные Тихоокеанские острова США"},
{"VI":"Виргинские Острова США"},
{"UG":"Уганда"},
{"UA":"Украина"},
{"AE":"Объединенные Арабские Эмираты"},
{"GB":"Великобритания"},
{"US":"США"},
{"UY":"Уругвай"},
{"UZ":"Узбекистан"},
{"VU":"Вануату"},
{"VA":"Ватикан"},
{"VE":"Венесуэла"},
{"VN":"Вьетнам"},
{"WK":"Остров Уэйк"},
{"WF":"Уоллис и Футуна"},
{"EH":"Западная Сахара"},
{"YE":"Йемен"},
{"ZM":"Замбия"},
{"SD":"Судан"},
{"SS":"Южный Судан"},
{"ZW":"Зимбабве"}]